[{"id":1,"user_id":6,"iban":"NL89 VSXV 5058 1691 57","balance":40317.51,"currency":"EUR","currency_des":"€","conditions":"Mauris sit amet eros. Suspendisse accumsan tortor quis turpis. Sed ante. Vivamus tortor. Duis mattis egestas metus.","type":"Cuenta de negocio"},
{"id":2,"user_id":7,"iban":"FR22 8591 4954 64WH JJGV KO5M U31","balance":14120.97,"currency":"USD","currency_des":"$","conditions":"Curabitur gravida nisi at nibh. In hac habitasse platea dictumst. Aliquam augue quam, sollicitudin vitae, consectetuer eget, rutrum at, lorem. Integer tincidunt ante vel ipsum. Praesent blandit lacinia erat. Vestibulum sed magna at nunc commodo placerat.","type":"Cuenta online"},
{"id":3,"user_id":7,"iban":"CY95 6066 4215 DXI8 M0PI VL0V FGBA","balance":24978.96,"currency":"EUR","currency_des":"€","conditions":"In hac habitasse platea dictumst. Morbi vestibulum, velit id pretium iaculis, diam erat fermentum justo, nec condimentum neque sapien placerat ante. Nulla justo. Aliquam quis turpis eget elit sodales scelerisque. Mauris sit amet eros. Suspendisse accumsan tortor quis turpis. Sed ante. Vivamus tortor. Duis mattis egestas metus.","type":"Cuenta personal"},
{"id":4,"user_id":5,"iban":"LU25 278T AHQ6 20ES PUKF","balance":92498.04,"currency":"EUR","currency_des":"€","conditions":"Integer ac leo. Pellentesque ultrices mattis odio. Donec vitae nisi. Nam ultrices, libero non mattis pulvinar, nulla pede ullamcorper augue, a suscipit nulla elit ac nulla. Sed vel enim sit amet nunc viverra dapibus. Nulla suscipit ligula in lacus. Curabitur at ipsum ac tellus semper interdum. Mauris ullamcorper purus sit amet nulla.","type":"Cuenta personal"},
{"id":5,"user_id":6,"iban":"SE83 3080 9315 8084 4026 8916","balance":39192.48,"currency":"EUR","currency_des":"€","conditions":"Vestibulum ante ipsum primis in faucibus orci luctus et ultrices posuere cubilia Curae; Nulla dapibus dolor vel est. Donec odio justo, sollicitudin ut, suscipit a, feugiat et, eros. Vestibulum ac est lacinia nisi venenatis tristique. Fusce congue, diam id ornare imperdiet, sapien urna pretium nisl, ut volutpat sapien arcu sed augue. Aliquam erat volutpat. In congue.","type":"Cuenta de crédito"},
{"id":6,"user_id":1,"iban":"RO66 HMQW UBJT L4Q5 FUJI NA2L","balance":73082.77,"currency":"USD","currency_des":"$","conditions":"Mauris sit amet eros. Suspendisse accumsan tortor quis turpis. Sed ante. Vivamus tortor. Duis mattis egestas metus. Aenean fermentum. Donec ut mauris eget massa tempor convallis. Nulla neque libero, convallis eget, eleifend luctus, ultricies eu, nibh. Quisque id justo sit amet sapien dignissim vestibulum.","type":"Cuenta de crédito"},
{"id":7,"user_id":2,"iban":"BE47 9277 6092 0901","balance":48568.88,"currency":"USD","currency_des":"$","conditions":"Nullam sit amet turpis elementum ligula vehicula consequat. Morbi a ipsum. Integer a nibh. In quis justo. Maecenas rhoncus aliquam lacus. Morbi quis tortor id nulla ultrices aliquet.","type":"Cuenta personal"},
{"id":8,"user_id":5,"iban":"FR69 3961 6368 26OI RISA OPVS D96","balance":14566.86,"currency":"EUR","currency_des":"€","conditions":"Donec posuere metus vitae ipsum. Aliquam non mauris.","type":"Cuenta personal"},
{"id":9,"user_id":2,"iban":"SM50 P372 0149 779R PPIJ IGHK VGX","balance":80429.87,"currency":"EUR","currency_des":"€","conditions":"In hac habitasse platea dictumst. Maecenas ut massa quis augue luctus tincidunt. Nulla mollis molestie lorem. Quisque ut erat. Curabitur gravida nisi at nibh. In hac habitasse platea dictumst. Aliquam augue quam, sollicitudin vitae, consectetuer eget, rutrum at, lorem.","type":"Cuenta de crédito"},
{"id":10,"user_id":7,"iban":"GB34 JPRY 0035 4981 8475 68","balance":64978.51,"currency":"EUR","currency_des":"€","conditions":"Sed vel enim sit amet nunc viverra dapibus. Nulla suscipit ligula in lacus. Curabitur at ipsum ac tellus semper interdum. Mauris ullamcorper purus sit amet nulla.","type":"Cuenta de crédito"},
{"id":11,"user_id":6,"iban":"MU17 FPPT 8964 2121 4894 9086 687B CI","balance":38977.11,"currency":"USD","currency_des":"$","conditions":"Praesent blandit. Nam nulla. Integer pede justo, lacinia eget, tincidunt eget, tempus vel, pede. Morbi porttitor lorem id ligula. Suspendisse ornare consequat lectus. In est risus, auctor sed, tristique in, tempus sit amet, sem. Fusce consequat. Nulla nisl. Nunc nisl. Duis bibendum, felis sed interdum venenatis, turpis enim blandit mi, in porttitor pede justo eu massa.","type":"Cuenta personal"},
{"id":12,"user_id":1,"iban":"BE50 5395 2869 1110","balance":50392.7,"currency":"EUR","currency_des":"€","conditions":"Nunc rhoncus dui vel sem. Sed sagittis.","type":"Cuenta de negocio"},
{"id":13,"user_id":1,"iban":"IL24 4580 2757 8396 2217 596","balance":90154.61,"currency":"USD","currency_des":"$","conditions":"Nam dui. Proin leo odio, porttitor id, consequat in, consequat ut, nulla. Sed accumsan felis. Ut at dolor quis odio consequat varius. Integer ac leo. Pellentesque ultrices mattis odio.","type":"Cuenta personal"},
{"id":14,"user_id":3,"iban":"FR85 2889 8385 25XA XAON MRLU 346","balance":46891.99,"currency":"EUR","currency_des":"€","conditions":"In congue. Etiam justo. Etiam pretium iaculis justo. In hac habitasse platea dictumst. Etiam faucibus cursus urna. Ut tellus. Nulla ut erat id mauris vulputate elementum. Nullam varius. Nulla facilisi.","type":"Cuenta de crédito"},
{"id":15,"user_id":1,"iban":"AL03 8325 2231 KDMA FVUP ZGV5 TJA8","balance":28602.8,"currency":"EUR","currency_des":"€","conditions":"Donec quis orci eget orci vehicula condimentum. Curabitur in libero ut massa volutpat convallis.","type":"Cuenta de crédito"},
{"id":16,"user_id":3,"iban":"SM68 Z034 5087 359Q RV6C 99VS QRX","balance":63139.18,"currency":"USD","currency_des":"$","conditions":"Vivamus tortor. Duis mattis egestas metus. Aenean fermentum. Donec ut mauris eget massa tempor convallis.","type":"Cuenta de crédito"},
{"id":17,"user_id":3,"iban":"DE82 7641 1134 1489 1386 30","balance":59352.93,"currency":"EUR","currency_des":"€","conditions":"Donec ut mauris eget massa tempor convallis. Nulla neque libero, convallis eget, eleifend luctus, ultricies eu, nibh. Quisque id justo sit amet sapien dignissim vestibulum. Vestibulum ante ipsum primis in faucibus orci luctus et ultrices posuere cubilia Curae; Nulla dapibus dolor vel est. Donec odio justo, sollicitudin ut, suscipit a, feugiat et, eros. Vestibulum ac est lacinia nisi venenatis tristique. Fusce congue, diam id ornare imperdiet, sapien urna pretium nisl, ut volutpat sapien arcu sed augue. Aliquam erat volutpat. In congue. Etiam justo.","type":"Cuenta online"},
{"id":18,"user_id":2,"iban":"GT93 YLWN MFR9 9D5I YBSP 1XDT VVUS","balance":47565.05,"currency":"USD","currency_des":"$","conditions":"Suspendisse potenti. In eleifend quam a odio. In hac habitasse platea dictumst. Maecenas ut massa quis augue luctus tincidunt. Nulla mollis molestie lorem. Quisque ut erat. Curabitur gravida nisi at nibh. In hac habitasse platea dictumst. Aliquam augue quam, sollicitudin vitae, consectetuer eget, rutrum at, lorem. Integer tincidunt ante vel ipsum.","type":"Cuenta de negocio"},
{"id":19,"user_id":4,"iban":"GR43 8019 753M CIWM 8KMA EQI7 8C3","balance":54669.19,"currency":"EUR","currency_des":"€","conditions":"Integer ac neque. Duis bibendum. Morbi non quam nec dui luctus rutrum. Nulla tellus. In sagittis dui vel nisl. Duis ac nibh. Fusce lacus purus, aliquet at, feugiat non, pretium quis, lectus. Suspendisse potenti.","type":"Cuenta personal"},
{"id":20,"user_id":1,"iban":"FR05 1056 2816 59V8 UDYJ XCUQ L73","balance":22639.67,"currency":"USD","currency_des":"$","conditions":"Aliquam non mauris. Morbi non lectus. Aliquam sit amet diam in magna bibendum imperdiet. Nullam orci pede, venenatis non, sodales sed, tincidunt eu, felis. Fusce posuere felis sed lacus.","type":"Cuenta de crédito"},
{"id":21,"user_id":3,"iban":"RS64 8925 2756 4499 6335 63","balance":2051.78,"currency":"USD","currency_des":"$","conditions":"Duis mattis egestas metus.","type":"Cuenta online"},
{"id":22,"user_id":7,"iban":"FR76 3368 2602 45JM DVLR M1DJ N71","balance":13020.75,"currency":"USD","currency_des":"$","conditions":"Integer ac neque.","type":"Cuenta de crédito"},
{"id":23,"user_id":4,"iban":"LT77 1179 2329 2271 6829","balance":13583.07,"currency":"EUR","currency_des":"€","conditions":"Nunc purus. Phasellus in felis. Donec semper sapien a libero. Nam dui. Proin leo odio, porttitor id, consequat in, consequat ut, nulla.","type":"Cuenta online"},
{"id":24,"user_id":3,"iban":"GB67 PDGH 6319 1422 8690 00","balance":62059.52,"currency":"USD","currency_des":"$","conditions":"Maecenas rhoncus aliquam lacus. Morbi quis tortor id nulla ultrices aliquet.","type":"Cuenta de crédito"},
{"id":25,"user_id":7,"iban":"FR75 2480 2896 43JP 3XE0 TPKS K97","balance":48033.39,"currency":"EUR","currency_des":"€","conditions":"Nunc purus. Phasellus in felis. Donec semper sapien a libero. Nam dui. Proin leo odio, porttitor id, consequat in, consequat ut, nulla. Sed accumsan felis.","type":"Cuenta de negocio"},
{"id":26,"user_id":2,"iban":"ES05 0648 6942 0301 5407 6957","balance":38872.12,"currency":"EUR","currency_des":"€","conditions":"Quisque porta volutpat erat. Quisque erat eros, viverra eget, congue eget, semper rutrum, nulla. Nunc purus.","type":"Cuenta personal"},
{"id":27,"user_id":3,"iban":"RS67 6344 0202 3946 1058 61","balance":75080.02,"currency":"USD","currency_des":"$","conditions":"Vestibulum sed magna at nunc commodo placerat. Praesent blandit. Nam nulla. Integer pede justo, lacinia eget, tincidunt eget, tempus vel, pede. Morbi porttitor lorem id ligula.","type":"Cuenta de negocio"},
{"id":28,"user_id":7,"iban":"MK02 915T EUOV WWGN 855","balance":5180.46,"currency":"USD","currency_des":"$","conditions":"Suspendisse potenti. In eleifend quam a odio. In hac habitasse platea dictumst. Maecenas ut massa quis augue luctus tincidunt. Nulla mollis molestie lorem. Quisque ut erat. Curabitur gravida nisi at nibh.","type":"Cuenta online"},
{"id":29,"user_id":3,"iban":"FR35 8633 0324 92GE FVAI W20C X29","balance":72471.85,"currency":"EUR","currency_des":"€","conditions":"In est risus, auctor sed, tristique in, tempus sit amet, sem.","type":"Cuenta online"},
{"id":30,"user_id":2,"iban":"FR75 8721 3903 91Y9 TD7I TPKG C94","balance":3008.98,"currency":"USD","currency_des":"$","conditions":"Maecenas rhoncus aliquam lacus. Morbi quis tortor id nulla ultrices aliquet. Maecenas leo odio, condimentum id, luctus nec, molestie sed, justo. Pellentesque viverra pede ac diam. Cras pellentesque volutpat dui. Maecenas tristique, est et tempus semper, est quam pharetra magna, ac consequat metus sapien ut nunc.","type":"Cuenta personal"}]